<?xml version="1.0" encoding="utf-8"?>
<?xml-stylesheet type="text/css" href="./results/results.css"?>
<!-- Generator: Adobe Illustrator 19.2.1, SVG Export Plug-In . SVG Version: 6.00 Build 0)  -->
<svg version="1.1" id="Capa_1" height="325px" width="325px" xmlns="http://www.w3.org/2000/svg" xmlns:xlink="http://www.w3.org/1999/xlink" x="0px" y="0px" viewBox="0 0 720 720" style="enable-background:new 0 0 720 720;" xml:space="preserve">
    <style type="text/css">
    	.st0{fill:#FFFFFF;}
    	.st1{fill:#45AB34;}
    	.st2{fill:#CB7E1E;}
    	.st3{fill:#1A5CA7;}
    	.st4{fill:#A52C72;}
    	.st5{fill:#00AAB5;}
    	.st6{fill:#DADADA;}
    	.st7{opacity:0.2;fill:#45AB34;}
    	.st8{opacity:0.2;fill:#CB7E1E;}
    	.st9{fill:url(#SVGID_1_);}
    	.st10{opacity:0.2;fill:#A52C72;}
    	.st11{opacity:0.2;fill:#00AAB5;}
    	.st12{opacity:0.5;fill:#FFFFFF;}
    	.st13{opacity:8.000000e-002;fill:#00AAB5;}
    	.st14{fill:#706F6F;}
    	.st15{fill:#B2B2B2;}
    	.st16{fill:#575756;}
    </style>

    <g>
    	<path class="st1" d="M48,454.8c-8.4-28.7-12.6-58.5-12.6-88.5c0-103.7,51.6-201.7,138-262l45,61.6
    		C152.3,212,112.9,286.9,112.9,366.2c0,23,3.2,45.8,9.6,67.7L48,454.8z"></path>
    	<path class="st2" d="M353,687.9c-70.6-2.4-137.2-26.3-192.6-69.2C105.9,576.5,67,519.8,48,454.8l74.5-20.8
    		c30.1,102.9,123.8,174.6,233.2,178.2L353,687.9z"></path>
    	<path class="st3" d="M364.6,688.1c-3.8,0-7.7-0.1-11.5-0.2l2.7-75.7c2.9,0.1,5.9,0.1,8.9,0.1c110.9,0,207.5-69.5,240.4-172.9
    		l74,22.5c-20.4,64.2-62.1,121.8-117.4,162.2C504.3,666,436.2,688.1,364.6,688.1z"></path>
    	<path class="st4" d="M678.9,461.9l-74-22.5c7.5-23.6,11.3-48.2,11.3-73.2c0-81.9-41.5-158.2-111-204.1l43.4-62.8
    		c90.8,60,145.1,159.8,145.1,266.9C693.7,398.8,688.7,431,678.9,461.9z"></path>
    	<path class="st5" d="M218.4,165.8l-45-61.6c56-39.1,122.1-59.8,191.2-59.8c66,0,129.6,19,184.1,55l-43.4,62.8
    		c-41.6-27.5-90.3-42-140.7-42C311.7,120.1,261.2,135.9,218.4,165.8z"></path>
    	<polygon class="st5" points="548.6,99.3 505.1,161.9 546.6,143.7 	"></polygon>
    	<polygon class="st4" points="679.1,461.5 605.1,439.4 635.1,472.8 	"></polygon>
    	<polygon class="st3" points="353.7,688.1 355.9,612.4 331,649.6 	"></polygon>
    	<polyline class="st2" points="48,454.8 122.5,434.2 78.8,422.1 48,454.8 	"></polyline>
    	<polygon class="st1" points="173.4,104.2 217.9,166.1 215.2,121.7 	"></polygon>
    </g>




    <path class="st6" d="M362.2,584.1c-121.2,0-219.9-96.5-219.9-215s98.6-215,219.9-215v19.5c-110.3,0-200,87.7-200,195.6
    	s89.7,195.6,200,195.6c51.6,0,100.5-19.1,137.9-53.9l13.7,14.1C472.7,563,418.9,584.1,362.2,584.1z"></path>
    <path class="st5" d="M513.8,524.8l-13.7-14.1c40.1-37.3,62.1-87.6,62.1-141.7c0-107.8-89.7-195.6-200-195.6v-19.5
    	c121.2,0,219.9,96.5,219.9,215C582.1,428.5,557.8,483.8,513.8,524.8z"></path>
    <path class="st7" d="M17.6,461.7C8.9,431,4.4,399.2,4.4,367.1c0-113.7,56.9-220.8,152.1-286.3l5.9,8.1
    	C69.8,152.6,14.6,256.6,14.6,367.1c0,31.2,4.3,62.2,12.9,91.9L17.6,461.7z"></path>
    <path class="st8" d="M362.2,717c-79.6,0-155-25-218-72.4c-61-45.9-105.9-110.8-126.6-182.8l9.8-2.7C69.3,605,207,707,362.2,707V717z
    	"></path>
    <linearGradient id="SVGID_1_" gradientUnits="userSpaceOnUse" x1="362.2015" y1="591.8066" x2="704.4023" y2="591.8066">
    	<stop offset="0" style="stop-color:#C9C9C9"></stop>
    	<stop offset="1.134564e-002" style="stop-color:#C3C5C8"></stop>
    	<stop offset="0.3251" style="stop-color:#1A5CA7"></stop>
    	<stop offset="0.4747" style="stop-color:#4376AF"></stop>
    	<stop offset="0.8369" style="stop-color:#A3B1C2"></stop>
    	<stop offset="1" style="stop-color:#C9C9C9"></stop>
    </linearGradient>
    <path class="st9" d="M362.2,717v-10c153.9,0,287.5-96.6,332.5-240.3l9.7,2.9c-21.9,70.1-67.2,133.1-127.5,177.4
    	C514.6,692.8,440.4,717,362.2,717z"></path>
    <path class="st10" d="M704.4,469.6l-9.7-2.9c10.1-32.1,15.2-65.6,15.2-99.6c0-113.1-57.3-218.5-153.3-281.9l5.7-8.3
    	C661,142.2,720,250.7,720,367.1C720,402,714.8,436.5,704.4,469.6z"></path>
    <path class="st11" d="M162.4,88.9l-5.9-8.1c60.4-41.6,131.5-63.5,205.7-63.5c71.7,0,140.9,20.7,200.1,59.8l-5.7,8.3
    	c-57.5-38-124.7-58.1-194.3-58.1C290.2,27.2,221.1,48.5,162.4,88.9z"></path>
		<g>
			<ellipse class="st12" cx="257.6" cy="105.1" rx="10.7" ry="10.5"></ellipse>
	    <ellipse class="st12" cx="339.2" cy="84.1" rx="10.7" ry="10.5"></ellipse>
	    <ellipse class="st12" cx="411.3" cy="86.9" rx="10.7" ry="10.5"></ellipse>
	    <ellipse class="st0" cx="488.3" cy="110.7" rx="10.7" ry="10.5"></ellipse>
		</g>
    <ellipse class="st3" cx="491.5" cy="688.1" rx="13.4" ry="13.1"></ellipse>
    <path class="st13" d="M500.2,510.9c38.2-35.6,62-85.8,62-141.5c0-107.9-89.4-195.3-199.7-195.3l-0.3,193.8L500.2,510.9z"></path>
    <g>
    	<path class="st14" d="M297,364c3.8,0,6.5-0.9,8.1-2.8c1.6-1.8,2.4-4.4,2.4-7.7c0-3.1-0.9-5.6-2.6-7.5c-1.7-1.9-4.3-2.8-7.6-2.8
    		c-3.3,0-6,1-8.1,3c-2.1,2-3.2,4.5-3.2,7.5h-8.1l-0.1-0.3c-0.1-4.6,1.6-8.6,5.4-11.8c3.7-3.3,8.5-4.9,14.2-4.9
    		c5.8,0,10.4,1.4,13.7,4.3c3.3,2.9,5,7.1,5,12.7c0,2.9-0.8,5.5-2.3,7.9s-3.7,4.2-6.5,5.5c3.2,1.2,5.6,3.1,7.2,5.6
    		c1.7,2.5,2.5,5.6,2.5,9.1c0,5.6-1.8,10-5.5,13.2s-8.4,4.8-14.2,4.8c-5.4,0-10.1-1.5-14.1-4.6c-4.1-3.1-6-7.2-5.9-12.2l0.1-0.3h8.1
    		c0,3,1.1,5.5,3.3,7.5c2.2,2,5,3.1,8.5,3.1c3.5,0,6.2-1,8.2-3.1c2-2.1,3-4.8,3-8.2c0-3.9-0.9-6.7-2.7-8.7s-4.7-2.9-8.6-2.9h-7V364
    		H297z"></path>
    	<path class="st14" d="M367.3,399h-39v-5.7l19.7-23c3.5-4.2,5.9-7.5,7.1-9.9c1.3-2.5,1.9-4.9,1.9-7.5c0-2.8-0.8-5.2-2.5-7
    		c-1.7-1.8-4-2.7-7-2.7c-3.7,0-6.5,1.1-8.5,3.3c-1.9,2.2-2.9,5-2.9,8.3h-8.2l-0.1-0.3c-0.1-5,1.6-9.3,5.1-12.7
    		c3.6-3.5,8.4-5.2,14.5-5.2c5.6,0,10,1.5,13.3,4.6c3.2,3,4.8,7,4.8,11.8c0,3.2-0.9,6.4-2.7,9.5c-1.8,3.1-4.6,7-8.4,11.7l-15.8,18.2
    		l0.1,0.2h28.6V399z"></path>
    	<path class="st14" d="M376.1,349.3c0-3.6,1.2-6.6,3.5-9c2.4-2.4,5.5-3.7,9.5-3.7s7.1,1.2,9.5,3.7s3.5,5.5,3.5,9.1v3.3
    		c0,3.6-1.2,6.6-3.5,9s-5.5,3.6-9.4,3.6c-4,0-7.1-1.2-9.5-3.6s-3.6-5.4-3.6-9V349.3z M382.4,352.6c0,2.1,0.6,3.8,1.7,5.3
    		c1.2,1.4,2.8,2.2,5,2.2c2.1,0,3.7-0.7,4.9-2.2c1.2-1.4,1.7-3.2,1.7-5.3v-3.3c0-2.1-0.6-3.9-1.7-5.3s-2.8-2.2-4.9-2.2
    		c-2.2,0-3.8,0.7-5,2.2c-1.2,1.5-1.7,3.3-1.7,5.3V352.6z M391.4,394.3l-4.7-2.8l30.7-48l4.7,2.8L391.4,394.3z M406.5,383.9
    		c0-3.6,1.2-6.6,3.5-9s5.5-3.7,9.5-3.7c3.9,0,7.1,1.2,9.4,3.7s3.6,5.4,3.6,9v3.3c0,3.6-1.2,6.6-3.5,9c-2.4,2.4-5.5,3.6-9.4,3.6
    		c-4,0-7.1-1.2-9.5-3.6c-2.4-2.4-3.6-5.4-3.6-9V383.9z M412.8,387.2c0,2.1,0.6,3.9,1.7,5.3s2.8,2.2,5,2.2c2.1,0,3.7-0.7,4.9-2.2
    		s1.7-3.2,1.7-5.3v-3.3c0-2.1-0.6-3.9-1.8-5.3s-2.8-2.2-4.9-2.2c-2.1,0-3.8,0.7-4.9,2.2s-1.7,3.2-1.7,5.3V387.2z"></path>
    </g>
    <g>
    	<g>
    		<path class="st15" d="M291.2,323.3c-0.1-0.5-0.2-1-0.2-1.3c-0.1-0.4-0.1-0.8-0.1-1.2c-0.5,0.8-1.3,1.5-2.2,2s-2,0.8-3.3,0.8
    			c-1.5,0-2.6-0.4-3.5-1.2c-0.8-0.8-1.2-1.8-1.2-3.1c0-1.3,0.6-2.4,1.8-3.2c1.2-0.8,2.7-1.2,4.6-1.2h3.7V313c0-1.1-0.3-1.9-1-2.5
    			c-0.7-0.6-1.7-0.9-2.9-0.9c-1.2,0-2.1,0.3-2.8,0.8c-0.7,0.5-1.1,1.2-1.1,2.1h-1.6l0-0.1c-0.1-1.1,0.4-2.1,1.5-2.9s2.4-1.3,4-1.3
    			s3,0.4,4,1.2c1,0.8,1.5,2,1.5,3.6v7.3c0,0.5,0,1,0.1,1.5c0.1,0.5,0.2,1,0.3,1.5H291.2z M285.6,322.2c1.3,0,2.4-0.3,3.4-0.9
    			c0.9-0.6,1.6-1.4,1.9-2.3v-2.8h-3.7c-1.4,0-2.5,0.3-3.4,1c-0.9,0.6-1.3,1.4-1.3,2.3c0,0.8,0.3,1.5,0.8,2
    			C283.8,321.9,284.6,322.2,285.6,322.2z"></path>
    		<path class="st15" d="M304,322.2c1.1,0,2-0.3,2.9-0.9c0.8-0.6,1.2-1.5,1.2-2.6h1.5l0,0.1c0,1.4-0.5,2.5-1.7,3.4
    			c-1.1,0.9-2.5,1.4-4,1.4c-2,0-3.6-0.7-4.7-2.1c-1.1-1.4-1.7-3.2-1.7-5.3v-0.6c0-2.2,0.6-3.9,1.7-5.3s2.7-2.1,4.7-2.1
    			c1.6,0,3,0.5,4.1,1.4c1.1,1,1.6,2.2,1.6,3.8l0,0.1h-1.5c0-1.2-0.4-2.1-1.2-2.8c-0.8-0.7-1.8-1.1-2.9-1.1c-1.6,0-2.8,0.6-3.5,1.7
    			c-0.8,1.1-1.2,2.6-1.2,4.3v0.6c0,1.7,0.4,3.2,1.2,4.3C301.2,321.7,302.4,322.2,304,322.2z"></path>
    		<path class="st15" d="M320.4,323.6c-2,0-3.6-0.7-4.8-2c-1.2-1.4-1.8-3.1-1.8-5.2v-0.8c0-2.1,0.6-3.9,1.9-5.3
    			c1.2-1.4,2.8-2.1,4.6-2.1c1.8,0,3.3,0.6,4.3,1.7c1,1.2,1.5,2.7,1.5,4.7v1.3h-10.6v0.5c0,1.7,0.4,3.1,1.3,4.2
    			c0.9,1.1,2.1,1.7,3.6,1.7c0.9,0,1.8-0.1,2.6-0.4c0.8-0.3,1.4-0.7,1.9-1.2l0.7,1.1c-0.5,0.5-1.2,1-2.1,1.4
    			C322.7,323.5,321.6,323.6,320.4,323.6z M320.3,309.6c-1.3,0-2.4,0.5-3.2,1.4c-0.8,0.9-1.3,2.1-1.5,3.4l0,0.1h8.7v-0.3
    			c0-1.3-0.4-2.4-1.1-3.3C322.6,310.1,321.6,309.6,320.3,309.6z"></path>
    		<path class="st15" d="M343.1,316.3c0,2.2-0.5,4-1.5,5.3c-1,1.3-2.4,2-4.3,2c-1.1,0-2-0.2-2.8-0.6c-0.8-0.4-1.5-1-2-1.7v7.7h-1.7
    			v-20.6h1.3l0.3,2.3c0.5-0.8,1.2-1.5,2-1.9c0.8-0.5,1.7-0.7,2.8-0.7c1.8,0,3.3,0.7,4.3,2.1c1,1.4,1.5,3.3,1.5,5.7V316.3z
    			 M341.4,316c0-1.9-0.4-3.4-1.1-4.6c-0.8-1.2-1.9-1.8-3.4-1.8c-1.1,0-2,0.3-2.7,0.8c-0.7,0.5-1.2,1.2-1.6,2v7.2
    			c0.4,0.8,0.9,1.4,1.7,1.9c0.7,0.5,1.6,0.7,2.7,0.7c1.5,0,2.6-0.5,3.3-1.6s1.1-2.5,1.1-4.3V316z"></path>
    		<path class="st15" d="M350.9,304.7v3.8h3.3v1.3h-3.3v9.7c0,1,0.2,1.7,0.5,2.1s0.8,0.6,1.4,0.6c0.2,0,0.4,0,0.6,0
    			c0.2,0,0.4-0.1,0.7-0.1l0.3,1.2c-0.2,0.1-0.5,0.2-0.8,0.3c-0.3,0.1-0.7,0.1-1,0.1c-1.1,0-1.9-0.3-2.5-1c-0.6-0.7-0.9-1.7-0.9-3.1
    			v-9.7h-2.6v-1.3h2.6v-3.8H350.9z"></path>
    		<path class="st15" d="M368.6,323.3c-0.1-0.5-0.2-1-0.2-1.3c-0.1-0.4-0.1-0.8-0.1-1.2c-0.5,0.8-1.3,1.5-2.2,2s-2,0.8-3.3,0.8
    			c-1.5,0-2.6-0.4-3.5-1.2c-0.8-0.8-1.2-1.8-1.2-3.1c0-1.3,0.6-2.4,1.8-3.2c1.2-0.8,2.7-1.2,4.6-1.2h3.7V313c0-1.1-0.3-1.9-1-2.5
    			c-0.7-0.6-1.7-0.9-2.9-0.9c-1.2,0-2.1,0.3-2.8,0.8c-0.7,0.5-1.1,1.2-1.1,2.1h-1.6l0-0.1c-0.1-1.1,0.4-2.1,1.5-2.9s2.4-1.3,4-1.3
    			s3,0.4,4,1.2c1,0.8,1.5,2,1.5,3.6v7.3c0,0.5,0,1,0.1,1.5c0.1,0.5,0.2,1,0.3,1.5H368.6z M363,322.2c1.3,0,2.4-0.3,3.4-0.9
    			c0.9-0.6,1.6-1.4,1.9-2.3v-2.8h-3.7c-1.4,0-2.5,0.3-3.4,1c-0.9,0.6-1.3,1.4-1.3,2.3c0,0.8,0.3,1.5,0.8,2
    			C361.2,321.9,362,322.2,363,322.2z"></path>
    		<path class="st15" d="M381.4,322.2c1.1,0,2-0.3,2.9-0.9c0.8-0.6,1.2-1.5,1.2-2.6h1.5l0,0.1c0,1.4-0.5,2.5-1.7,3.4
    			c-1.1,0.9-2.5,1.4-4,1.4c-2,0-3.6-0.7-4.7-2.1c-1.1-1.4-1.7-3.2-1.7-5.3v-0.6c0-2.2,0.6-3.9,1.7-5.3s2.7-2.1,4.7-2.1
    			c1.6,0,3,0.5,4.1,1.4c1.1,1,1.6,2.2,1.6,3.8l0,0.1h-1.5c0-1.2-0.4-2.1-1.2-2.8c-0.8-0.7-1.8-1.1-2.9-1.1c-1.6,0-2.8,0.6-3.5,1.7
    			c-0.8,1.1-1.2,2.6-1.2,4.3v0.6c0,1.7,0.4,3.2,1.2,4.3C378.6,321.7,379.8,322.2,381.4,322.2z"></path>
    		<path class="st15" d="M394,304.2h-1.7v-2.3h1.7V304.2z M394,323.3h-1.7v-14.8h1.7V323.3z"></path>
    		<path class="st15" d="M399.1,315.7c0-2.2,0.6-4,1.8-5.4c1.2-1.4,2.8-2.1,4.9-2.1c2,0,3.7,0.7,4.9,2.1c1.2,1.4,1.8,3.2,1.8,5.4v0.5
    			c0,2.2-0.6,4-1.8,5.4c-1.2,1.4-2.8,2.1-4.9,2.1c-2,0-3.7-0.7-4.9-2.1s-1.8-3.2-1.8-5.4V315.7z M400.8,316.2c0,1.7,0.4,3.2,1.3,4.3
    			c0.9,1.2,2.1,1.8,3.7,1.8c1.6,0,2.8-0.6,3.7-1.8c0.9-1.2,1.3-2.6,1.3-4.3v-0.5c0-1.7-0.4-3.1-1.3-4.3c-0.9-1.2-2.1-1.8-3.7-1.8
    			s-2.8,0.6-3.7,1.8c-0.9,1.2-1.3,2.6-1.3,4.3V316.2z M407.9,302.2h2.1l0,0.1l-3.5,3.6H405L407.9,302.2z"></path>
    		<path class="st15" d="M419,308.5l0.2,2.6c0.5-0.9,1.2-1.6,2-2.1c0.8-0.5,1.8-0.7,2.9-0.7c1.6,0,2.9,0.5,3.8,1.5
    			c0.9,1,1.3,2.5,1.3,4.6v9h-1.7v-9c0-1.7-0.3-2.9-1-3.6c-0.6-0.7-1.6-1.1-2.8-1.1c-1.2,0-2.2,0.3-2.9,0.9c-0.7,0.6-1.3,1.4-1.6,2.3
    			v10.5h-1.7v-14.8H419z"></path>
    	</g>
    </g>
    <g>
    	<path class="st16" d="M519.3,707.1v6.4H518v-15.4h5.4c1.7,0,2.9,0.4,3.8,1.2c0.9,0.8,1.4,1.9,1.4,3.3c0,1.4-0.5,2.5-1.4,3.3
    		c-0.9,0.8-2.2,1.2-3.8,1.2H519.3z M519.3,706h4.1c1.3,0,2.3-0.3,2.9-1c0.6-0.6,1-1.5,1-2.4c0-1-0.3-1.8-1-2.5c-0.6-0.7-1.6-1-2.9-1
    		h-4.1V706z"></path>
    	<path class="st16" d="M530.5,707.6c0-1.7,0.5-3.1,1.4-4.1c0.9-1.1,2.2-1.6,3.8-1.6c1.6,0,2.8,0.5,3.8,1.6c0.9,1.1,1.4,2.5,1.4,4.1
    		v0.4c0,1.7-0.5,3.1-1.4,4.2c-0.9,1.1-2.2,1.6-3.8,1.6c-1.6,0-2.8-0.5-3.8-1.6c-0.9-1.1-1.4-2.5-1.4-4.2V707.6z M531.8,707.9
    		c0,1.3,0.3,2.4,1,3.3c0.7,0.9,1.6,1.4,2.9,1.4c1.2,0,2.2-0.5,2.8-1.4c0.7-0.9,1-2,1-3.3v-0.4c0-1.3-0.3-2.4-1-3.3
    		c-0.7-0.9-1.6-1.4-2.9-1.4c-1.2,0-2.2,0.5-2.8,1.4s-1,2-1,3.3V707.9z"></path>
    	<path class="st16" d="M550.6,710.6c0-0.5-0.2-1-0.7-1.4c-0.5-0.4-1.3-0.7-2.4-1c-1.4-0.3-2.4-0.7-3.1-1.2c-0.7-0.5-1-1.2-1-2.1
    		c0-0.9,0.4-1.6,1.1-2.2c0.8-0.6,1.8-0.9,3-0.9c1.3,0,2.4,0.3,3.1,1c0.8,0.6,1.2,1.4,1.1,2.4l0,0.1h-1.2c0-0.6-0.3-1.2-0.8-1.6
    		c-0.6-0.5-1.3-0.7-2.2-0.7c-0.9,0-1.6,0.2-2.1,0.6c-0.5,0.4-0.7,0.9-0.7,1.4c0,0.5,0.2,1,0.6,1.3c0.4,0.3,1.2,0.6,2.4,0.9
    		c1.4,0.3,2.4,0.7,3.1,1.2c0.7,0.5,1.1,1.2,1.1,2.1c0,1-0.4,1.7-1.2,2.3c-0.8,0.6-1.8,0.9-3.1,0.9c-1.4,0-2.5-0.3-3.3-1
    		s-1.2-1.5-1.2-2.4l0-0.1h1.2c0,0.8,0.4,1.4,1,1.8c0.6,0.4,1.4,0.6,2.3,0.6c0.9,0,1.7-0.2,2.2-0.6
    		C550.3,711.6,550.6,711.1,550.6,710.6z"></path>
    	<path class="st16" d="M556.3,698.7H555V697h1.3V698.7z M556.3,713.5H555V702h1.3V713.5z"></path>
    	<path class="st16" d="M564.1,712.6c0.8,0,1.6-0.2,2.2-0.7c0.6-0.5,1-1.1,1-2h1.2l0,0.1c0,1.1-0.4,1.9-1.3,2.7s-1.9,1.1-3.1,1.1
    		c-1.6,0-2.8-0.5-3.6-1.6c-0.9-1.1-1.3-2.4-1.3-4.1v-0.4c0-1.7,0.4-3,1.3-4.1c0.9-1.1,2.1-1.6,3.6-1.6c1.3,0,2.3,0.4,3.1,1.1
    		c0.8,0.7,1.2,1.7,1.2,2.9l0,0.1h-1.2c0-0.9-0.3-1.7-0.9-2.2s-1.4-0.8-2.3-0.8c-1.2,0-2.1,0.4-2.7,1.3c-0.6,0.9-0.9,2-0.9,3.3v0.4
    		c0,1.3,0.3,2.5,0.9,3.3C562,712.2,562.9,712.6,564.1,712.6z"></path>
    	<path class="st16" d="M572.7,698.7h-1.3V697h1.3V698.7z M572.7,713.5h-1.3V702h1.3V713.5z"></path>
    	<path class="st16" d="M575.6,707.6c0-1.7,0.5-3.1,1.4-4.1c0.9-1.1,2.2-1.6,3.8-1.6c1.6,0,2.8,0.5,3.8,1.6c0.9,1.1,1.4,2.5,1.4,4.1
    		v0.4c0,1.7-0.5,3.1-1.4,4.2c-0.9,1.1-2.2,1.6-3.8,1.6c-1.6,0-2.8-0.5-3.8-1.6c-0.9-1.1-1.4-2.5-1.4-4.2V707.6z M576.9,707.9
    		c0,1.3,0.3,2.4,1,3.3c0.7,0.9,1.6,1.4,2.9,1.4c1.2,0,2.2-0.5,2.8-1.4c0.7-0.9,1-2,1-3.3v-0.4c0-1.3-0.3-2.4-1-3.3s-1.6-1.4-2.9-1.4
    		c-1.2,0-2.2,0.5-2.8,1.4c-0.7,0.9-1,2-1,3.3V707.9z M582.4,697.2h1.6l0,0.1l-2.7,2.8h-1.2L582.4,697.2z"></path>
    	<path class="st16" d="M589.8,702l0.1,2c0.4-0.7,0.9-1.2,1.5-1.6c0.6-0.4,1.4-0.6,2.3-0.6c1.3,0,2.2,0.4,2.9,1.1
    		c0.7,0.8,1,1.9,1,3.5v7h-1.3v-7c0-1.3-0.3-2.2-0.8-2.8c-0.5-0.5-1.2-0.8-2.1-0.8c-0.9,0-1.7,0.2-2.2,0.7c-0.6,0.4-1,1-1.2,1.8v8.1
    		h-1.3V702H589.8z"></path>
    	<path class="st16" d="M607.8,698.7h-1.3V697h1.3V698.7z M607.8,713.5h-1.3V702h1.3V713.5z"></path>
    	<path class="st16" d="M610.9,707.9c0-1.8,0.4-3.3,1.2-4.4c0.8-1.1,1.9-1.6,3.3-1.6c0.8,0,1.5,0.2,2.1,0.5c0.6,0.3,1.1,0.8,1.5,1.4
    		V697h1.3v16.5h-1.1l-0.2-1.7c-0.4,0.6-0.9,1.1-1.5,1.4c-0.6,0.3-1.3,0.5-2.2,0.5c-1.4,0-2.5-0.5-3.3-1.5c-0.8-1-1.2-2.4-1.2-4.1
    		V707.9z M612.2,708.1c0,1.4,0.3,2.5,0.8,3.3c0.6,0.8,1.4,1.2,2.6,1.2c0.8,0,1.5-0.2,2.1-0.5c0.6-0.4,1-0.9,1.3-1.5v-5.4
    		c-0.3-0.6-0.7-1.2-1.3-1.6c-0.5-0.4-1.2-0.6-2.1-0.6c-1.1,0-2,0.5-2.6,1.4c-0.6,0.9-0.9,2.1-0.9,3.6V708.1z"></path>
    	<path class="st16" d="M628.2,713.7c-1.5,0-2.7-0.5-3.7-1.6c-0.9-1-1.4-2.4-1.4-4v-0.6c0-1.7,0.5-3,1.4-4.1s2.1-1.6,3.6-1.6
    		c1.4,0,2.5,0.4,3.3,1.3c0.8,0.9,1.2,2.1,1.2,3.6v1h-8.2v0.4c0,1.3,0.3,2.4,1,3.3c0.7,0.9,1.6,1.3,2.8,1.3c0.7,0,1.4-0.1,2-0.3
    		c0.6-0.2,1.1-0.5,1.5-0.9l0.6,0.9c-0.4,0.4-1,0.8-1.6,1.1C629.9,713.6,629.1,713.7,628.2,713.7z M628.1,702.9c-1,0-1.8,0.4-2.5,1
    		c-0.6,0.7-1,1.6-1.1,2.7l0,0.1h6.7v-0.3c0-1-0.3-1.9-0.8-2.5C629.9,703.2,629.1,702.9,628.1,702.9z"></path>
    	<path class="st16" d="M642.6,713.5c-0.1-0.4-0.1-0.7-0.2-1c0-0.3-0.1-0.6-0.1-0.9c-0.4,0.6-1,1.1-1.7,1.5c-0.7,0.4-1.6,0.6-2.5,0.6
    		c-1.1,0-2-0.3-2.7-0.9c-0.6-0.6-0.9-1.4-0.9-2.4c0-1,0.5-1.9,1.4-2.5c0.9-0.6,2.1-1,3.6-1h2.9v-1.4c0-0.8-0.3-1.5-0.8-1.9
    		c-0.5-0.5-1.3-0.7-2.2-0.7c-0.9,0-1.6,0.2-2.1,0.6c-0.5,0.4-0.8,1-0.8,1.6h-1.2l0-0.1c0-0.9,0.3-1.6,1.1-2.3c0.8-0.7,1.8-1,3.1-1
    		c1.3,0,2.3,0.3,3.1,1c0.8,0.6,1.2,1.6,1.2,2.8v5.6c0,0.4,0,0.8,0.1,1.2c0,0.4,0.1,0.8,0.2,1.1H642.6z M638.3,712.6
    		c1,0,1.9-0.2,2.6-0.7s1.2-1.1,1.5-1.8v-2.2h-2.9c-1.1,0-1.9,0.2-2.6,0.7c-0.7,0.5-1,1.1-1,1.8c0,0.7,0.2,1.2,0.7,1.6
    		C636.9,712.4,637.5,712.6,638.3,712.6z"></path>
    	<path class="st16" d="M648.5,713.5h-1.3V697h1.3V713.5z"></path>
    </g>
  </svg>
